Vivado/dsp_demo/dsp_demo.sim/sim_1/behav/xsim/dumpports.vcd
$date
   Sun Aug 27 12:37:01 2023
$end
$version
  2023.1.1
$end
$timescale
  1ps
$end
$scope module mac.dsp $end
$var port [7:0] <0 P $end
$var port [3:0] <1 C $end
$var port [3:0] <2 B $end
$var port [3:0] <3 A $end
$var port 1 <4 CLK $end
$upscope $end
$enddefinitions $end
$dumpports
pLLLLLLLL 66666666 00000000 <0
pNNNN 6666 6666 <1
pNNNN 6666 6666 <2
pNNNN 6666 6666 <3
pN 6 6 <4
$end
#1000000
pDUDU 6060 0606 <2
pDUUD 6006 0660 <3
pU 0 6 <4
#1005000
pD 6 0 <4
#1010000
pU 0 6 <4
#1015000
pD 6 0 <4
#1020000
pU 0 6 <4
#1025000
pD 6 0 <4
#1030000
pU 0 6 <4
#1035000
pD 6 0 <4
#1040000
pU 0 6 <4
#1040100
pXXXXXXXX 66666666 66666666 <0
#1045000
pD 6 0 <4
#1050000
pU 0 6 <4
#1055000
pD 6 0 <4
#1060000
pU 0 6 <4
#1065000
pD 6 0 <4
#1070000
pU 0 6 <4
#1075000
pD 6 0 <4
#1080000
pU 0 6 <4
#1085000
pD 6 0 <4
#1090000
pU 0 6 <4
#1095000
pD 6 0 <4
#1100000
pU 0 6 <4
#1105000
pD 6 0 <4
#1110000
pU 0 6 <4
#1115000
pD 6 0 <4
#1120000
pU 0 6 <4
#1125000
pD 6 0 <4
#1130000
pU 0 6 <4
#1135000
pD 6 0 <4
#1140000
pDDDD 6666 0000 <1
pU 0 6 <4
#1145000
pD 6 0 <4
#1150000
pU 0 6 <4
#1155000
pD 6 0 <4
#1160000
pU 0 6 <4
#1165000
pD 6 0 <4
#1170000
pU 0 6 <4
#1175000
pD 6 0 <4
#1180000
pU 0 6 <4
#1180100
pLLLLHHHH 66660000 00006666 <0
#1185000
pD 6 0 <4
#1190000
pU 0 6 <4
#1195000
pD 6 0 <4
#1200000
pDUUD 6006 0660 <2
pDUDU 6060 0606 <3
pU 0 6 <4
#1205000
pD 6 0 <4
#1210000
pU 0 6 <4
#1215000
pD 6 0 <4
#1220000
pU 0 6 <4
#1225000
pD 6 0 <4
#1230000
pU 0 6 <4
#1235000
pD 6 0 <4
#1240000
pU 0 6 <4
#1245000
pD 6 0 <4
#1250000
pU 0 6 <4
#1255000
pD 6 0 <4
#1260000
pU 0 6 <4
#1265000
pD 6 0 <4
#1270000
pU 0 6 <4
#1275000
pD 6 0 <4
#1280000
pU 0 6 <4
#1285000
pD 6 0 <4
#1290000
pU 0 6 <4
#1295000
pD 6 0 <4
#1300000
pU 0 6 <4
#1305000
pD 6 0 <4
#1310000
pU 0 6 <4
#1315000
pD 6 0 <4
#1320000
pU 0 6 <4
#1325000
pD 6 0 <4
#1330000
pUDDU 0660 6006 <1
pU 0 6 <4
#1335000
pD 6 0 <4
#1340000
pU 0 6 <4
#1345000
pD 6 0 <4
#1350000
pU 0 6 <4
#1355000
pD 6 0 <4
#1360000
pU 0 6 <4
#1365000
pD 6 0 <4
#1370000
pU 0 6 <4
#1375000
pD 6 0 <4
#1380000
pU 0 6 <4
#1385000
pD 6 0 <4
#1390000
pDDDD 6666 0000 <1
pUDDU 0660 6006 <2
pU 0 6 <4
#1395000
pD 6 0 <4
#1400000
pU 0 6 <4
#1405000
pD 6 0 <4
#1410000
pU 0 6 <4
#1415000
pD 6 0 <4
#1420000
pU 0 6 <4
#1425000
pD 6 0 <4
#1430000
pU 0 6 <4
#1430100
pHHHLHHHL 00060006 66606660 <0
#1435000
pD 6 0 <4
#1440000
pU 0 6 <4
#1445000
pD 6 0 <4
#1450000
pDUDU 6060 0606 <1
pU 0 6 <4
#1455000
pD 6 0 <4
#1460000
pU 0 6 <4
#1465000
pD 6 0 <4
#1470000
pU 0 6 <4
#1475000
pD 6 0 <4
#1480000
pU 0 6 <4
#1485000
pD 6 0 <4
#1490000
pU 0 6 <4
#1490100
pHHHHLLLH 00006660 66660006 <0
#1495000
pD 6 0 <4
#1500000
pUDDD 0666 6000 <2
pDDUD 6606 0060 <3
pU 0 6 <4
#1505000
pD 6 0 <4
#1510000
pU 0 6 <4
#1515000
pD 6 0 <4
#1520000
pU 0 6 <4
#1525000
pD 6 0 <4
#1530000
pU 0 6 <4
#1535000
pD 6 0 <4
#1540000
pU 0 6 <4
#1540100
pHHHHHLHL 00000606 66666060 <0
#1545000
pD 6 0 <4
#1550000
pU 0 6 <4
#1555000
pD 6 0 <4
#1560000
pDUDD 6066 0600 <1
pU 0 6 <4
#1565000
pD 6 0 <4
#1570000
pU 0 6 <4
#1575000
pD 6 0 <4
#1580000
pU 0 6 <4
#1585000
pD 6 0 <4
#1590000
pU 0 6 <4
#1595000
pD 6 0 <4
#1600000
pU 0 6 <4
#1605000
pD 6 0 <4
#1610000
pU 0 6 <4
#1615000
pD 6 0 <4
#1620000
pU 0 6 <4
#1625000
pD 6 0 <4
#1630000
pU 0 6 <4
#1635000
pD 6 0 <4
#1640000
pU 0 6 <4
#1645000
pD 6 0 <4
#1650000
pU 0 6 <4
#1655000
pD 6 0 <4
#1660000
pU 0 6 <4
#1665000
pD 6 0 <4
#1670000
pU 0 6 <4
#1675000
pD 6 0 <4
#1680000
pDDDD 6666 0000 <1
pU 0 6 <4
#1685000
pD 6 0 <4
#1690000
pU 0 6 <4
#1695000
pD 6 0 <4
#1700000
pU 0 6 <4
#1705000
pD 6 0 <4
#1710000
pU 0 6 <4
#1715000
pD 6 0 <4
#1720000
pU 0 6 <4
#1725000
pD 6 0 <4
#1730000
pU 0 6 <4
#1735000
pD 6 0 <4
#1740000
pU 0 6 <4
#1745000
pD 6 0 <4
#1750000
pDUDD 6066 0600 <1
pU 0 6 <4
#1755000
pD 6 0 <4
#1760000
pU 0 6 <4
#1765000
pD 6 0 <4
#1770000
pU 0 6 <4
#1775000
pD 6 0 <4
#1780000
pU 0 6 <4
#1785000
pD 6 0 <4
#1790000
pU 0 6 <4
#1795000
pD 6 0 <4
#1800000
pU 0 6 <4
#1805000
pD 6 0 <4
#1810000
pU 0 6 <4
#1815000
pD 6 0 <4
#1820000
pU 0 6 <4
#1825000
pD 6 0 <4
#1830000
pU 0 6 <4
#1835000
pD 6 0 <4
#1840000
pU 0 6 <4
#1845000
pD 6 0 <4
#1850000
pU 0 6 <4
#1855000
pD 6 0 <4
#1860000
pU 0 6 <4
#1865000
pD 6 0 <4
#1870000
pU 0 6 <4
#1875000
pD 6 0 <4
#1880000
pU 0 6 <4
#1885000
pD 6 0 <4
#1890000
pU 0 6 <4
#1895000
pD 6 0 <4
#1900000
pU 0 6 <4
#1905000
pD 6 0 <4
#1910000
pU 0 6 <4
#1915000
pD 6 0 <4
#1920000
pHHHHHLHL 00000606 66666060 <0
pDUDD 6066 0600 <1
pUDDD 0666 6000 <2
pDDUD 6606 0060 <3
pU 0 6 <4
#1925000
pD 6 0 <4
#1930000
pU 0 6 <4
#1935000
pD 6 0 <4
#1940000
pU 0 6 <4
#1945000
pD 6 0 <4
#1950000
pU 0 6 <4
#1955000
pD 6 0 <4
#1960000
pU 0 6 <4
#1965000
pD 6 0 <4
#1970000
pU 0 6 <4
#1975000
pD 6 0 <4
#1980000
pUDDD 0666 6000 <1
pDUDD 6066 0600 <2
pDUUU 6000 0666 <3
pU 0 6 <4
#1985000
pD 6 0 <4
#1990000
pU 0 6 <4
#1995000
pD 6 0 <4
#2000000
pU 0 6 <4
#2005000
pD 6 0 <4
#2010000
pU 0 6 <4
#2015000
pD 6 0 <4
#2020000
pU 0 6 <4
#2020100
pLLLLHLHL 66660606 00006060 <0
#2025000
pD 6 0 <4
#2030000
pU 0 6 <4
#2035000
pD 6 0 <4
#2040000
pU 0 6 <4
#2045000
pD 6 0 <4
#2050000
pU 0 6 <4
#2055000
pD 6 0 <4
#2060000
pU 0 6 <4
#2065000
pD 6 0 <4
#2070000
pDUUD 6006 0660 <1
pUDDD 0666 6000 <2
pUDDD 0666 6000 <3
pU 0 6 <4
#2075000
pD 6 0 <4
#2080000
pU 0 6 <4
#2085000
pD 6 0 <4
#2090000
pU 0 6 <4
#2095000
pD 6 0 <4
#2100000
pU 0 6 <4
#2105000
pD 6 0 <4
#2110000
pU 0 6 <4
#2110100
pLLHLLLHH 66066600 00600066 <0
#2115000
pD 6 0 <4
#2120000
pU 0 6 <4
#2125000
pD 6 0 <4
#2130000
pU 0 6 <4
#2135000
pD 6 0 <4
#2140000
pU 0 6 <4
#2145000
pD 6 0 <4
#2150000
pU 0 6 <4
#2155000
pD 6 0 <4
#2160000
pUDDU 0660 6006 <1
pDUDU 6060 0606 <2
pDUUD 6006 0660 <3
pU 0 6 <4
#2165000
pD 6 0 <4
#2170000
pU 0 6 <4
#2175000
pD 6 0 <4
#2180000
pU 0 6 <4
#2185000
pD 6 0 <4
#2190000
pU 0 6 <4
#2195000
pD 6 0 <4
#2200000
pU 0 6 <4
#2200100
pLLLLHLHH 66660600 00006066 <0
#2205000
pD 6 0 <4
#2210000
pU 0 6 <4
#2215000
pD 6 0 <4
#2220000
pU 0 6 <4
#2225000
pD 6 0 <4
#2230000
pU 0 6 <4
#2235000
pD 6 0 <4
#2240000
pU 0 6 <4
#2245000
pD 6 0 <4
#2250000
pUUUU 0000 6666 <1
pUUUU 0000 6666 <2
pUUUU 0000 6666 <3
pU 0 6 <4
#2255000
pD 6 0 <4
#2260000
pU 0 6 <4
#2265000
pD 6 0 <4
#2270000
pU 0 6 <4
#2275000
pD 6 0 <4
#2280000
pU 0 6 <4
#2285000
pD 6 0 <4
#2290000
pU 0 6 <4
#2290100
pLLLLLLLL 66666666 00000000 <0
#2295000
pD 6 0 <4
#2300000
pU 0 6 <4
#2305000
pD 6 0 <4
#2310000
pU 0 6 <4
#2315000
pD 6 0 <4
#2320000
pU 0 6 <4
#2325000
pD 6 0 <4
#2330000
pU 0 6 <4
#2335000
pD 6 0 <4
#2340000
pU 0 6 <4
#2345000
pD 6 0 <4
#2350000
pU 0 6 <4
#2355000
pD 6 0 <4
#2360000
pU 0 6 <4
#2365000
pD 6 0 <4
#2370000
pU 0 6 <4
#2375000
pD 6 0 <4
#2380000
pU 0 6 <4
#2385000
pD 6 0 <4
#2390000
pU 0 6 <4
#2395000
pD 6 0 <4
#2400000
pU 0 6 <4
#2405000
pD 6 0 <4
#2410000
pU 0 6 <4
#2415000
pD 6 0 <4
#2420000
pU 0 6 <4
#2425000
pD 6 0 <4
#2430000
pU 0 6 <4
#2435000
pD 6 0 <4
#2440000
pU 0 6 <4
#2445000
pD 6 0 <4
#2450000
pU 0 6 <4
#2455000
pD 6 0 <4
#2460000
pU 0 6 <4
#2465000
pD 6 0 <4
#2470000
pU 0 6 <4
#2475000
pD 6 0 <4
#2480000
pU 0 6 <4
#2485000
pD 6 0 <4
#2490000
pU 0 6 <4
#2495000
pD 6 0 <4
#2500000
pU 0 6 <4
#2505000
pD 6 0 <4
#2510000
pU 0 6 <4
#2515000
pD 6 0 <4
#2520000
pU 0 6 <4
#2525000
pD 6 0 <4
#2530000
pU 0 6 <4
#2535000
pD 6 0 <4
#2540000
pU 0 6 <4
#2545000
pD 6 0 <4
#2550000
pDUDD 6066 0600 <1
pUDDD 0666 6000 <2
pDDUD 6606 0060 <3
pU 0 6 <4
#2555000
pD 6 0 <4
#2560000
pU 0 6 <4
#2565000
pD 6 0 <4
#2570000
pU 0 6 <4
#2575000
pD 6 0 <4
#2580000
pU 0 6 <4
#2585000
pD 6 0 <4
#2590000
pU 0 6 <4
#2590100
pHHHHHLHL 00000606 66666060 <0
#2595000
pD 6 0 <4
#2600000
pU 0 6 <4
#2605000
pD 6 0 <4
#2610000
pU 0 6 <4
#2615000
pD 6 0 <4
#2620000
pU 0 6 <4
#2625000
pD 6 0 <4
#2630000
pU 0 6 <4
#2635000
pD 6 0 <4
#2640000
pU 0 6 <4
#2645000
pD 6 0 <4
#2650000
pU 0 6 <4
#2655000
pD 6 0 <4
#2660000
pU 0 6 <4
#2665000
pD 6 0 <4
#2670000
pU 0 6 <4
#2675000
pD 6 0 <4
#2680000
pU 0 6 <4
#2685000
pD 6 0 <4
#2690000
pU 0 6 <4
#2695000
pD 6 0 <4
#2700000
pU 0 6 <4
$vcdclose
